<svg width="238" height="122" viewBox="0 0 238 122" fill="none" xmlns="http://www.w3.org/2000/svg">
<path d="M1 78.0021C3.5 85.5021 18.2801 132.35 55 117.502C78.5 108 93.4999 58.0023 112.5 29.5021C129.5 4.00209 180.5 -13.5002 185.5 18.9995C194.058 74.6243 141.5 93.4998 140 89.0023C117.5 69.9998 195 42 210 38.5023C239.588 31.6029 238.833 44.5023 234.5 44.5023" stroke="#FC8AD0" stroke-width="2" stroke-linecap="round"/>
</svg>
