<svg width="18" height="18" viewBox="0 0 18 18" fill="none" xmlns="http://www.w3.org/2000/svg">
<g id="Group 6">
<rect id="Rectangle 1" x="0.5" y="0.5" width="11" height="11" rx="2.5" stroke="#FDF18D"/>
<rect id="Rectangle 2" x="6.5" y="6.5" width="11" height="11" rx="2.5" fill="#FC8AD0" stroke="#FDF18D"/>
</g>
</svg>
