<svg width="1920" height="934" viewBox="0 0 1920 934" fill="none" xmlns="http://www.w3.org/2000/svg">
<path d="M2137 467C2153.5 893 1610.26 934 960.5 934C310.737 934 -241 890.5 -216 467C-189.629 20.2777 310.737 0 960.5 0C1610.26 0 2168 48.5 2137 467Z" fill="#FC8AD0"/>
</svg>
